module github.com/AdguardTeam/AdGuardHome

go 1.19

require (
	// TODO(a.garipov): Use v0.48.0 when it's released.
	github.com/AdguardTeam/dnsproxy v0.48.2
	github.com/AdguardTeam/golibs v0.13.0
	github.com/AdguardTeam/urlfilter v0.16.1
	github.com/NYTimes/gziphandler v1.1.1
	github.com/ameshkov/dnscrypt/v2 v2.2.6
	github.com/digineo/go-ipset/v2 v2.2.1
	github.com/dimfeld/httptreemux/v5 v5.5.0
	github.com/fsnotify/fsnotify v1.6.0
	github.com/go-ping/ping v1.1.0
	github.com/google/go-cmp v0.5.9
	github.com/google/gopacket v1.1.19
	github.com/google/renameio v1.0.1
	github.com/google/uuid v1.3.0
	github.com/insomniacslk/dhcp v0.0.0-20221215072855-de60144f33f8
	github.com/kardianos/service v1.2.2
	github.com/mdlayher/ethernet v0.0.0-20220221185849-529eae5b6118
	github.com/mdlayher/netlink v1.7.1
	github.com/mdlayher/packet v1.1.1
	github.com/miekg/dns v1.1.53
	github.com/quic-go/quic-go v0.33.0
	github.com/stretchr/testify v1.8.2
	github.com/ti-mo/netfilter v0.5.0
	go.etcd.io/bbolt v1.3.7
	golang.org/x/crypto v0.7.0
	golang.org/x/exp v0.0.0-20230321023759-10a507213a29
	golang.org/x/net v0.8.0
	golang.org/x/sys v0.6.0
	gopkg.in/natefinch/lumberjack.v2 v2.2.1
	gopkg.in/yaml.v3 v3.0.1
	howett.net/plist v1.0.0
)

require (
	github.com/aead/chacha20 v0.0.0-20180709150244-8b13a72661da // indirect
	github.com/aead/poly1305 v0.0.0-20180717145839-3fee0db0b635 // indirect
	github.com/ameshkov/dnsstamps v1.0.3 // indirect
	github.com/beefsack/go-rate v0.0.0-20220214233405-116f4ca011a0 // indirect
	github.com/bluele/gcache v0.0.2 // indirect
	github.com/davecgh/go-spew v1.1.1 // indirect
	github.com/go-task/slim-sprig v0.0.0-20230315185526-52ccab3ef572 // indirect
	github.com/golang/mock v1.6.0 // indirect
	github.com/google/pprof v0.0.0-20230323073829-e72429f035bd // indirect
	github.com/josharian/native v1.1.0 // indirect
	github.com/mdlayher/raw v0.1.0 // indirect
	github.com/mdlayher/socket v0.4.0 // indirect
	github.com/onsi/ginkgo/v2 v2.9.2 // indirect
	github.com/patrickmn/go-cache v2.1.0+incompatible // indirect
	github.com/pierrec/lz4/v4 v4.1.17 // indirect
	github.com/pkg/errors v0.9.1 // indirect
	github.com/pmezard/go-difflib v1.0.0 // indirect
	github.com/quic-go/qpack v0.4.0 // indirect
	github.com/quic-go/qtls-go1-19 v0.3.0 // indirect
	github.com/quic-go/qtls-go1-20 v0.2.0 // indirect
	github.com/u-root/uio v0.0.0-20230305220412-3e8cd9d6bf63 // indirect
	golang.org/x/mod v0.9.0 // indirect
	golang.org/x/sync v0.1.0 // indirect
	golang.org/x/text v0.8.0 // indirect
	golang.org/x/tools v0.7.0 // indirect
)
